{
  "images" : [
    {
      "idiom" : "universal",
      "scale" : "1x",
      "filename" : "bb-recent-padding.png"
    },
    {
      "idiom" : "universal",
      "scale" : "2x",
      "filename" : "bb-recent-padding@2x.png"
    },
    {
      "idiom" : "universal",
      "scale" : "3x",
      "filename" : "bb-recent-padding@3x.png"
    }
  ],
  "info" : {
    "version" : 1,
    "author" : "xcode"
  }
}